digraph G {
	node [shape=box];
	"LoginInfo" -> {};
	"GPUImageContext" -> "GPUImageFramebuffer";
	"GPUImageContext" -> "GLProgram";
	"GPUImageTransformFilter" -> "GPUImageFilter";
	"GPUImageMultiplyBlendFilter" -> "GPUImageTwoInputFilter";
	"GPUImageRGBOpeningFilter" -> "GPUImageRGBDilationFilter";
	"GPUImageRGBOpeningFilter" -> "GPUImageRGBErosionFilter";
	"GPUImageRGBOpeningFilter" -> "GPUImageFilterGroup";
	"GPUImageSharpenFilter" -> "GPUImageFilter";
	"ClassExplorerVC" -> "RuntimeHelper";
	"ClassExplorerVC" -> "ClassDetailVC";
	"GPUImageSepiaFilter" -> "GPUImageColorMatrixFilter";
	"QDecimalElement" -> "QEntryElement";
	"QDecimalElement" -> "QDecimalTableViewCell";
	"QDecimalElement" -> "QEntryTableViewCell";
	"ObjcSingleton" -> {};
	"QuartzDashViewController" -> "QuartzLines";
	"BTSReflectionViewController" -> {};
	"GPUImageSoftEleganceFilter" -> "GPUImageLookupFilter";
	"GPUImageSoftEleganceFilter" -> "GPUImagePicture";
	"GPUImageSoftEleganceFilter" -> "GPUImageAlphaBlendFilter";
	"GPUImageSoftEleganceFilter" -> "GPUImageGaussianBlurFilter";
	"GPUImageSoftEleganceFilter" -> "GPUImageFilterGroup";
	"GPUImageSmoothToonFilter" -> "GPUImageGaussianBlurFilter";
	"GPUImageSmoothToonFilter" -> "GPUImageToonFilter";
	"GPUImageSmoothToonFilter" -> "GPUImageFilterGroup";
	"QTableViewCell" -> "QAppearance";
	"GPUImageGrayscaleFilter" -> "GPUImageFilter";
	"QImageTableViewCell" -> "QEntryTableViewCell";
	"APLAttachmentsViewController" -> "APLDecorationView";
	"APLPositionToBoundsMapping" -> {};
	"FilterDetailCategory" -> "FilterDemoVC";
	"PeriodPickerValueParser" -> "QPickerValueParser";
	"GPUImageExclusionBlendFilter" -> "GPUImageTwoInputFilter";
	"GPUImageRGBFilter" -> "GPUImageFilter";
	"BTSSineWaveView" -> "BTSSineWaveLayer";
	"GPUImageColorBlendFilter" -> "GPUImageTwoInputFilter";
	"GPUImageChromaKeyBlendFilter" -> "GPUImageTwoInputFilter";
	"QBadgeTableCell" -> "QTableViewCell";
	"QBadgeTableCell" -> "QBadgeLabel";
	"GPUImageErosionFilter" -> "GPUImageDilationFilter";
	"GPUImageErosionFilter" -> "GPUImageTwoPassTextureSamplingFilter";
	"RuntimeHelper" -> {};
	"GPUImageStretchDistortionFilter" -> "GPUImageFilter";
	"GPUImageCrosshatchFilter" -> "GPUImageFilter";
	"GPUImageHalftoneFilter" -> "GPUImagePixellateFilter";
	"QDateEntryTableViewCell" -> "QAppearance";
	"QDateEntryTableViewCell" -> "QEntryTableViewCell";
	"GPUImageLocalBinaryPatternFilter" -> "GPUImage3x3TextureSamplingFilter";
	"QBadgeLabel" -> {};
	"GPUImageAverageLuminanceThresholdFilter" -> "GPUImageLuminosity";
	"GPUImageAverageLuminanceThresholdFilter" -> "GPUImageLuminanceThresholdFilter";
	"GPUImageAverageLuminanceThresholdFilter" -> "GPUImageFilterGroup";
	"GPUImageRGBErosionFilter" -> "GPUImageDilationFilter";
	"GPUImageRGBErosionFilter" -> "GPUImageTwoPassTextureSamplingFilter";
	"GPUImageCannyEdgeDetectionFilter" -> "GPUImageDirectionalNonMaximumSuppressionFilter";
	"GPUImageCannyEdgeDetectionFilter" -> "GPUImageGrayscaleFilter";
	"GPUImageCannyEdgeDetectionFilter" -> "GPUImageDirectionalSobelEdgeDetectionFilter";
	"GPUImageCannyEdgeDetectionFilter" -> "GPUImageSingleComponentGaussianBlurFilter";
	"GPUImageCannyEdgeDetectionFilter" -> "GPUImageWeakPixelInclusionFilter";
	"GPUImageCannyEdgeDetectionFilter" -> "GPUImageFilterGroup";
	"SideMenuSecondVC" -> {};
	"QMapElement" -> "QMapViewController";
	"QMapElement" -> "QuickDialog";
	"GPUImageHardLightBlendFilter" -> "GPUImageTwoInputFilter";
	"GPUImageSobelEdgeDetectionFilter" -> "GPUImageGrayscaleFilter";
	"GPUImageSobelEdgeDetectionFilter" -> "GPUImageTwoPassFilter";
	"GPUImageSobelEdgeDetectionFilter" -> "GPUImage3x3ConvolutionFilter";
	"GPUImageLuminosity" -> "GPUImageAverageColor";
	"QuartzClipping" -> "QuartzView";
	"QTextField" -> {};
	"GPUImageTextureOutput" -> "GPUImageContext";
	"GPUImageTextureInput" -> "GPUImageOutput";
	"GPUImageRawDataInput" -> "GPUImageOutput";
	"GPUImageMissEtikateFilter" -> "GPUImageLookupFilter";
	"GPUImageMissEtikateFilter" -> "GPUImagePicture";
	"GPUImageMissEtikateFilter" -> "GPUImageFilterGroup";
	"GPUImageSkinToneFilter" -> "GPUImageTwoInputFilter";
	"GPUImageKuwaharaFilter" -> "GPUImageFilter";
	"GPUImageToonFilter" -> "GPUImage3x3TextureSamplingFilter";
	"GPUImageToonFilter" -> "GPUImageSobelEdgeDetectionFilter";
	"GPUImageToonFilter" -> "GPUImage3x3ConvolutionFilter";
	"GPUImageView" -> "GPUImageContext";
	"GPUImageView" -> "GPUImageFilter";
	"ProtocolExplorerVC" -> "RuntimeHelper";
	"GPUImageLuminosityBlendFilter" -> "GPUImageTwoInputFilter";
	"GPUImageHSBFilter" -> "GPUImageColorMatrixFilter";
	"GPUImageOutput" -> "GPUImageContext";
	"GPUImageOutput" -> "GPUImageMovieWriter";
	"GPUImageMedianFilter" -> "GPUImage3x3TextureSamplingFilter";
	"GPUImageHueFilter" -> "GPUImageFilter";
	"GPUImageSolidColorGenerator" -> "GPUImageFilter";
	"QDateInlineTableViewCell" -> "QAppearance";
	"QDateInlineTableViewCell" -> "QTableViewCell";
	"QDateInlineTableViewCell" -> "QElement";
	"GPUImagePoissonBlendFilter" -> "GPUImageTwoInputCrossTextureSamplingFilter";
	"GPUImagePoissonBlendFilter" -> "GPUImageFilterGroup";
	"DOAutocompleteTextField" -> {};
	"GPUImageSoftLightBlendFilter" -> "GPUImageTwoInputFilter";
	"CoreAnimationVC" -> "NSAViewController";
	"CoreAnimationVC" -> "FlipViewController";
	"CoreAnimationVC" -> "TachometerViewController";
	"CoreAnimationVC" -> "ImplicitAnimationsViewController";
	"CoreAnimationVC" -> "ReflectionViewController";
	"CoreAnimationVC" -> "SimpleViewPropertyAnimation";
	"CoreAnimationVC" -> "MakeItStickViewController";
	"CoreAnimationVC" -> "StickyNotesViewController";
	"CoreAnimationVC" -> "PulseViewController";
	"CoreAnimationVC" -> "AVPlayerLayerViewController";
	"CoreAnimationVC" -> "SublayerTransformViewController";
	"CoreAnimationVC" -> "BatmanViewController";
	"CoreAnimationVC" -> "PacmanViewController";
	"GPUImagePrewittEdgeDetectionFilter" -> "GPUImageSobelEdgeDetectionFilter";
	"BTSAbstractLissajousLayer" -> {};
	"ClassDetailVC" -> {};
	"QMapAnnotation" -> "QuickDialog";
	"QRadioElement" -> "QEntryElement";
	"QRadioElement" -> "QuickDialogTableView";
	"QRadioElement" -> "QBindingEvaluator";
	"QuickDialog" -> "QSegmentedElement";
	"QuickDialog" -> "QDateTimeInlineElement";
	"QuickDialog" -> "QSelectItemElement";
	"QuickDialog" -> "QCountdownElement";
	"QuickDialog" -> "QDecimalElement";
	"QuickDialog" -> "QTableViewCell";
	"QuickDialog" -> "QRadioItemElement";
	"QuickDialog" -> "QImageElement";
	"QuickDialog" -> "QDateEntryTableViewCell";
	"QuickDialog" -> "QAppearance";
	"QuickDialog" -> "QBadgeLabel";
	"QuickDialog" -> "QFlatAppearance";
	"QuickDialog" -> "QuickDialogEntryElementDelegate";
	"QuickDialog" -> "QBooleanElement";
	"QuickDialog" -> "QuickDialogDelegate";
	"QuickDialog" -> "QLabelElement";
	"QuickDialog" -> "QTextElement";
	"QuickDialog" -> "QuickDialogController";
	"QuickDialog" -> "QButtonElement";
	"QuickDialog" -> "QTextField";
	"QuickDialog" -> "QSortingSection";
	"QuickDialog" -> "QFloatElement";
	"GPUImageDilationFilter" -> "GPUImageTwoPassTextureSamplingFilter";
	"BTSCoreGraphics" -> {};
	"GPUImageMotionDetector" -> "GPUImageAverageColor";
	"GPUImageMotionDetector" -> "GPUImageLowPassFilter";
	"GPUImageMotionDetector" -> "GPUImageFilterGroup";
	"GPUImageHistogramEqualizationFilter" -> "GPUImageRawDataOutput";
	"GPUImageHistogramEqualizationFilter" -> "GPUImageRawDataInput";
	"GPUImageHistogramEqualizationFilter" -> "GPUImageHistogramFilter";
	"GPUImageHistogramEqualizationFilter" -> "GPUImageFilterGroup";
	"GPUImageHistogramEqualizationFilter" -> "GPUImageTwoInputFilter";
	"QuartzPolygons" -> "QuartzView";
	"GPUImageHarrisCornerDetectionFilter" -> "GPUImageGaussianBlurFilter";
	"GPUImageHarrisCornerDetectionFilter" -> "GPUImageGrayscaleFilter";
	"GPUImageHarrisCornerDetectionFilter" -> "GPUImageColorPackingFilter";
	"GPUImageHarrisCornerDetectionFilter" -> "GPUImageXYDerivativeFilter";
	"GPUImageHarrisCornerDetectionFilter" -> "GPUImageThresholdedNonMaximumSuppressionFilter";
	"GPUImageHarrisCornerDetectionFilter" -> "GPUImageFilterGroup";
	"GPUImageAlphaBlendFilter" -> "GPUImageTwoInputFilter";
	"QRootElement" -> "QEntryElement";
	"QRootElement" -> "QSection";
	"QRootElement" -> "QBindingEvaluator";
	"QRootElement" -> "QElement";
	"GPUImagePerlinNoiseFilter" -> "GPUImageFilter";
	"TachometerViewController" -> "VictorKit";
	"GPUImageColorMatrixFilter" -> "GPUImageFilter";
	"GPUImageLuminanceThresholdFilter" -> "GPUImageFilter";
	"GPUImage3x3TextureSamplingFilter" -> "GPUImageFilter";
	"QuartzGradientViewController" -> "QuartzRendering";
	"GPUImageAverageColor" -> "GPUImageFilter";
	"GPUImageHoughTransformLineDetector" -> "GPUImageThresholdEdgeDetectionFilter";
	"GPUImageHoughTransformLineDetector" -> "GPUImageParallelCoordinateLineTransformFilter";
	"GPUImageHoughTransformLineDetector" -> "GPUImageCannyEdgeDetectionFilter";
	"GPUImageHoughTransformLineDetector" -> "GPUImageThresholdedNonMaximumSuppressionFilter";
	"GPUImageHoughTransformLineDetector" -> "GPUImageFilterGroup";
	"GPUImageHazeFilter" -> "GPUImageFilter";
	"GPUImageLinearBurnBlendFilter" -> "GPUImageTwoInputFilter";
	"QSelectItemElement" -> "QuickDialogController";
	"QSelectItemElement" -> "QAppearance";
	"QSelectItemElement" -> "QLabelElement";
	"QSelectItemElement" -> "QuickDialogTableView";
	"QSelectItemElement" -> "QSelectSection";
	"AVPlayerLayerViewController" -> "VictorKit";
	"GPUImageSketchFilter" -> "GPUImageSobelEdgeDetectionFilter";
	"GPUImageZoomBlurFilter" -> "GPUImageFilter";
	"GPUImageWhiteBalanceFilter" -> "GPUImageFilter";
	"QAutoEntryElement" -> "QEntryElement";
	"QAutoEntryElement" -> "QLabelElement";
	"QAutoEntryElement" -> "DOAutocompleteTextField";
	"APLCollisionGravityViewController" -> {};
	"VCLabs-Bridging-Header" -> "FontExplorerVC";
	"VCLabs-Bridging-Header" -> "ProtocolExplorerVC";
	"VCLabs-Bridging-Header" -> "VictorKit";
	"VCLabs-Bridging-Header" -> "GestureRecognizer";
	"VCLabs-Bridging-Header" -> "SideMenuLeftVC";
	"VCLabs-Bridging-Header" -> "QuickDialogExampleVC";
	"VCLabs-Bridging-Header" -> "SideMenuRightVC";
	"VCLabs-Bridging-Header" -> "CoreAnimationVC";
	"VCLabs-Bridging-Header" -> "BadgeAddVC";
	"VCLabs-Bridging-Header" -> "UnicodeExplorerVC";
	"VCLabs-Bridging-Header" -> "ClassExplorerVC";
	"VCLabs-Bridging-Header" -> "QuickDialogSampleDataBuilder";
	"VCLabs-Bridging-Header" -> "GPUImage";
	"VCLabs-Bridging-Header" -> "ObjcSingleton";
	"BTSBezierPathViewController" -> "BTSCubicBezierPathView";
	"GPUImageMonochromeFilter" -> "GPUImageFilter";
	"GPUImageDirectionalSobelEdgeDetectionFilter" -> "GPUImage3x3TextureSamplingFilter";
	"GPUImageCGAColorspaceFilter" -> "GPUImageFilter";
	"GPUImageClosingFilter" -> "GPUImageDilationFilter";
	"GPUImageClosingFilter" -> "GPUImageErosionFilter";
	"GPUImageClosingFilter" -> "GPUImageFilterGroup";
	"QuickDialogEntryElementDelegate" -> {};
	"SideMenuLeftVC" -> "SideMenuSecondVC";
	"SideMenuLeftVC" -> "VCLabs-Swift";
	"QImageElement" -> "QEntryElement";
	"QImageElement" -> "QRootElement";
	"GPUImageSingleComponentGaussianBlurFilter" -> "GPUImageGaussianBlurFilter";
	"QuartzLineViewController" -> "QuartzLines";
	"GPUImagePosterizeFilter" -> "GPUImageFilter";
	"GPUImageSubtractBlendFilter" -> "GPUImageTwoInputFilter";
	"GPUImageColourFASTFeatureDetector" -> "GPUImageColourFASTSamplingOperation";
	"GPUImageColourFASTFeatureDetector" -> "GPUImageBoxBlurFilter";
	"GPUImageColourFASTFeatureDetector" -> "GPUImageFilterGroup";
	"QuartzLines" -> "QuartzView";
	"QPickerTableViewCell" -> "QuickDialog";
	"QPickerTableViewCell" -> "QEntryTableViewCell";
	"QuickDialogExampleVC" -> "QuickDialog";
	"QuickDialogExampleVC" -> "QWebElement";
	"SublayerTransformViewController" -> "VictorKit";
	"BatmanViewController" -> {};
	"BTSBasicLayerPropertiesViewController" -> "BTSAnchorPointLayer";
	"QAppearance" -> "QSection";
	"QAppearance" -> "QuickDialogTableView";
	"GPUImageFilter" -> "GPUImageOutput";
	"GPUImageFilter" -> "GPUImagePicture";
	"GPUImageExposureFilter" -> "GPUImageFilter";
	"GPUImagePolkaDotFilter" -> "GPUImagePixellateFilter";
	"GPUImageLowPassFilter" -> "GPUImageDissolveBlendFilter";
	"GPUImageLowPassFilter" -> "GPUImageBuffer";
	"GPUImageLowPassFilter" -> "GPUImageFilterGroup";
	"GPUImageEmbossFilter" -> "GPUImage3x3ConvolutionFilter";
	"GPUImageUnsharpMaskFilter" -> "GPUImageFilter";
	"GPUImageUnsharpMaskFilter" -> "GPUImageGaussianBlurFilter";
	"GPUImageUnsharpMaskFilter" -> "GPUImageTwoInputFilter";
	"GPUImageUnsharpMaskFilter" -> "GPUImageFilterGroup";
	"GPUImageFourInputFilter" -> "GPUImageThreeInputFilter";
	"GPUImageSphereRefractionFilter" -> "GPUImageFilter";
	"QuickDialogDelegate" -> {};
	"GPUImageLookupFilter" -> "GPUImageTwoInputFilter";
	"QLoadingElement" -> "QLabelElement";
	"GPUImageAmatorkaFilter" -> "GPUImageLookupFilter";
	"GPUImageAmatorkaFilter" -> "GPUImagePicture";
	"GPUImageAmatorkaFilter" -> "GPUImageFilterGroup";
	"GPUImageBulgeDistortionFilter" -> "GPUImageFilter";
	"BTSLissajousNeedsDisplayForKeyLayer" -> {};
	"GLProgram" -> {};
	"QTextElement" -> "QAppearance";
	"QTextElement" -> "QRootElement";
	"QTextElement" -> "QElement";
	"APLDecorationView" -> {};
	"GPUImageMosaicFilter" -> "GPUImagePicture";
	"GPUImageMosaicFilter" -> "GPUImageTwoInputFilter";
	"QSelectSection" -> "QSection";
	"QSelectSection" -> "QuickDialog";
	"QSelectSection" -> "QDynamicDataSection";
	"QRadioSection" -> "QRootElement";
	"QRadioSection" -> "QuickDialogTableView";
	"QRadioSection" -> "QSection";
	"QRadioSection" -> "QSelectSection";
	"GPUImageFilterGroup" -> "GPUImageFilter";
	"GPUImageFilterGroup" -> "GPUImageOutput";
	"GPUImageFilterGroup" -> "GPUImagePicture";
	"QMapViewController" -> "QMapAnnotation";
	"GPUImageLaplacianFilter" -> "GPUImage3x3ConvolutionFilter";
	"QBadgeElement" -> "QLabelElement";
	"QBadgeElement" -> "QuickDialogTableView";
	"QBadgeElement" -> "QBadgeTableCell";
	"QuickDialogTableDelegate" -> "QuickDialogController";
	"QPickerValueParser" -> "QuickDialog";
	"GPUImageCrosshairGenerator" -> "GPUImageFilter";
	"GPUImageRGBDilationFilter" -> "GPUImageDilationFilter";
	"GPUImageRGBDilationFilter" -> "GPUImageTwoPassTextureSamplingFilter";
	"GPUImageNonMaximumSuppressionFilter" -> "GPUImage3x3TextureSamplingFilter";
	"BTSLissajousCADisplayLinkLayer" -> "BTSCoreGraphics";
	"GPUImagePolarPixellateFilter" -> "GPUImageFilter";
	"GPUImageHistogramGenerator" -> "GPUImageFilter";
	"BTSSineWaveViewController" -> "BTSSineWaveLayer";
	"QFloatElement" -> "QLabelElement";
	"QFloatElement" -> "QFloatTableViewCell";
	"QFloatElement" -> "QuickDialogTableView";
	"GPUImageNobleCornerDetectionFilter" -> "GPUImageHarrisCornerDetectionFilter";
	"QElement" -> "QTableViewCell";
	"QElement" -> "QBindingEvaluator";
	"GPUImageVideoCamera" -> "GPUImageContext";
	"GPUImageVideoCamera" -> "GPUImageOutput";
	"GPUImageVideoCamera" -> "GPUImageColorConversion";
	"GPUImageVideoCamera" -> "GPUImageFilter";
	"GPUImageVideoCamera" -> "GPUImageMovieWriter";
	"MakeItStickViewController" -> {};
	"GPUImageJFAVoronoiFilter" -> "GPUImageFilter";
	"QEntryTableViewCell" -> "QTableViewCell";
	"QEntryTableViewCell" -> "QTextField";
	"FontExplorerVC" -> {};
	"QSegmentedElement" -> "QRadioElement";
	"GPUImageFramework" -> {};
	"GPUImageRawDataOutput" -> "GPUImageContext";
	"GPUImageRawDataOutput" -> "GLProgram";
	"GPUImageRawDataOutput" -> "GPUImageFilter";
	"GPUImageRawDataOutput" -> "GPUImageMovieWriter";
	"QuartzRendering" -> "QuartzView";
	"LoginController" -> "QuickDialog";
	"LoginController" -> "LoginInfo";
	"APLCustomDynamicItemViewController" -> "APLPositionToBoundsMapping";
	"GPUImageiOSBlurFilter" -> "GPUImageGaussianBlurFilter";
	"GPUImageiOSBlurFilter" -> "GPUImageSaturationFilter";
	"GPUImageiOSBlurFilter" -> "GPUImageLuminanceRangeFilter";
	"GPUImageiOSBlurFilter" -> "GPUImageFilterGroup";
	"GPUImageGammaFilter" -> "GPUImageFilter";
	"GPUImageLightenBlendFilter" -> "GPUImageTwoInputFilter";
	"GPUImageThresholdedNonMaximumSuppressionFilter" -> "GPUImage3x3TextureSamplingFilter";
	"APLInstantaneousPushViewController" -> "APLDecorationView";
	"GPUImageCropFilter" -> "GPUImageFilter";
	"QDynamicDataSection" -> "QEmptyListElement";
	"QDynamicDataSection" -> "QSection";
	"QDynamicDataSection" -> "QuickDialog";
	"StickyNotesViewController" -> "NoteView";
	"PacmanViewController" -> "VictorKit";
	"GPUImageStillCamera" -> "GPUImageVideoCamera";
	"GPUImagePixellateFilter" -> "GPUImageFilter";
	"GPUImageKuwaharaRadius3Filter" -> "GPUImageFilter";
	"GPUImage3x3ConvolutionFilter" -> "GPUImage3x3TextureSamplingFilter";
	"GPUImageTwoPassTextureSamplingFilter" -> "GPUImageTwoPassFilter";
	"NoteView" -> {};
	"GPUImageXYDerivativeFilter" -> "GPUImageSobelEdgeDetectionFilter";
	"GPUImageColorConversion" -> "GPUImageFilter";
	"GPUImageHighPassFilter" -> "GPUImageLowPassFilter";
	"GPUImageHighPassFilter" -> "GPUImageDifferenceBlendFilter";
	"GPUImageHighPassFilter" -> "GPUImageFilterGroup";
	"GPUImageGlassSphereFilter" -> "GPUImageSphereRefractionFilter";
	"APLCollisionsGravitySpringViewController" -> "APLDecorationView";
	"GPUImageLanczosResamplingFilter" -> "GPUImageTwoPassTextureSamplingFilter";
	"GPUImageColorLocalBinaryPatternFilter" -> "GPUImage3x3TextureSamplingFilter";
	"QEntryElement" -> "QLabelElement";
	"QEntryElement" -> "QEntryTableViewCell";
	"GPUImageChromaKeyFilter" -> "GPUImageFilter";
	"QSection" -> "QuickDialog";
	"QSection" -> "UIKit/UIKit";
	"QSection" -> "QuickDialogTableView";
	"QSection" -> "QBindingEvaluator";
	"ImplicitAnimationsViewController" -> {};
	"APLGraphView" -> {};
	"GPUImageTwoPassFilter" -> "GPUImageFilter";
	"GPUImageFASTCornerDetectionFilter" -> "GPUImageGrayscaleFilter";
	"GPUImageFASTCornerDetectionFilter" -> "GPUImageNonMaximumSuppressionFilter";
	"GPUImageFASTCornerDetectionFilter" -> "GPUImage3x3TextureSamplingFilter";
	"GPUImageFASTCornerDetectionFilter" -> "GPUImageFilterGroup";
	"APLItemPropertiesViewController" -> {};
	"GPUImageOverlayBlendFilter" -> "GPUImageTwoInputFilter";
	"GPUImageDarkenBlendFilter" -> "GPUImageTwoInputFilter";
	"GPUImagePixellatePositionFilter" -> "GPUImageFilter";
	"APLGyroGraphViewController" -> "APLGraphView";
	"APLGyroGraphViewController" -> "APLGraphViewController";
	"GPUImageVibranceFilter" -> "GPUImage";
	"GPUImageDivideBlendFilter" -> "GPUImageTwoInputFilter";
	"GPUImageLineGenerator" -> "GPUImageFilter";
	"GPUImageVoronoiConsumerFilter" -> "GPUImageTwoInputFilter";
	"GPUImageToneCurveFilter" -> "GPUImageFilter";
	"GPUImageColorBurnBlendFilter" -> "GPUImageTwoInputFilter";
	"QMailElement" -> "QuickDialog";
	"BTSCubicBezierPathView" -> {};
	"APLAccelerometerGraphViewController" -> "APLGraphView";
	"APLAccelerometerGraphViewController" -> "APLGraphViewController";
	"QFlatAppearance" -> "QAppearance";
	"QFlatAppearance" -> "QSection";
	"FlipViewController" -> {};
	"GPUImageOpeningFilter" -> "GPUImageErosionFilter";
	"GPUImageOpeningFilter" -> "GPUImageDilationFilter";
	"GPUImageOpeningFilter" -> "GPUImageFilterGroup";
	"GPUImageParallelCoordinateLineTransformFilter" -> "GPUImageFilter";
	"GPUImageDissolveBlendFilter" -> "GPUImageTwoInputFilter";
	"QBooleanElement" -> "QuickDialogController";
	"QBooleanElement" -> "QLabelElement";
	"GPUImageMovieComposition" -> "GPUImageMovieWriter";
	"GPUImageMovieComposition" -> "GPUImageMovie";
	"NSAViewController" -> {};
	"BadgeAddVC" -> {};
	"QLabelElement" -> "QRootElement";
	"BTSLissajousViewController" -> "BTSLissajousLayer";
	"QuartzView" -> {};
	"GPUImageFalseColorFilter" -> "GPUImageFilter";
	"GPUImageGaussianBlurPositionFilter" -> "GPUImageTwoPassTextureSamplingFilter";
	"GPUImageDirectionalNonMaximumSuppressionFilter" -> "GPUImageFilter";
	"JsonDataSampleController" -> "QuickDialog";
	"GPUImageTwoInputCrossTextureSamplingFilter" -> "GPUImageTwoInputFilter";
	"QDateTimeElement" -> "QuickDialogController";
	"QDateTimeElement" -> "QDateTimeInlineElement";
	"QDateTimeElement" -> "QRootElement";
	"GPUImageAddBlendFilter" -> "GPUImageTwoInputFilter";
	"GPUImageGaussianBlurFilter" -> "GPUImageTwoPassTextureSamplingFilter";
	"QuickDialogController" -> "QEntryElement";
	"QuickDialogController" -> "QRootElement";
	"QuickDialogController" -> "QuickDialogTableView";
	"QuickDialogController" -> "QElement";
	"GPUImageLevelsFilter" -> "GPUImageFilter";
	"QFloatTableViewCell" -> "QTableViewCell";
	"QDecimalTableViewCell" -> "QuickDialog";
	"QDecimalTableViewCell" -> "QEntryTableViewCell";
	"GPUImageColorInvertFilter" -> "GPUImageFilter";
	"VictorKit" -> {};
	"QButtonElement" -> "QAppearance";
	"QButtonElement" -> "QLabelElement";
	"QuartzPolyViewController" -> "QuartzPolygons";
	"GPUImageScreenBlendFilter" -> "GPUImageTwoInputFilter";
	"BTSAnchorPointLayer" -> {};
	"GPUImageBilateralFilter" -> "GPUImageGaussianBlurFilter";
	"GPUImageLuminanceRangeFilter" -> "GPUImageFilter";
	"GPUImageTwoInputFilter" -> "GPUImageFilter";
	"GPUImageThresholdEdgeDetectionFilter" -> "GPUImageSobelEdgeDetectionFilter";
	"QuartzCurves" -> "QuartzView";
	"QSortingSection" -> "QSection";
	"QSortingSection" -> "QElement";
	"GPUImagePinchDistortionFilter" -> "GPUImageFilter";
	"GPUImageRGBClosingFilter" -> "GPUImageRGBDilationFilter";
	"GPUImageRGBClosingFilter" -> "GPUImageRGBErosionFilter";
	"GPUImageRGBClosingFilter" -> "GPUImageFilterGroup";
	"BTSLissajousView" -> "BTSLissajousLayer";
	"GPUImageMovie" -> "GPUImageContext";
	"GPUImageMovie" -> "GPUImageOutput";
	"GPUImageMovie" -> "GPUImageMovieWriter";
	"GPUImageMovie" -> "GPUImageFilter";
	"GPUImageMovie" -> "GPUImageColorConversion";
	"QuickDialogDataSource" -> "QuickDialog";
	"QuickDialogDataSource" -> "QSortingSection";
	"GPUImageUIElement" -> "GPUImageOutput";
	"PulseViewController" -> {};
	"QColorPickerElement" -> "QuickDialog";
	"GPUImageThresholdSketchFilter" -> "GPUImageThresholdEdgeDetectionFilter";
	"APLPendulumBehavior" -> {};
	"GPUImageTiltShiftFilter" -> "GPUImageFilter";
	"GPUImageTiltShiftFilter" -> "GPUImageGaussianBlurFilter";
	"GPUImageTiltShiftFilter" -> "GPUImageTwoInputFilter";
	"GPUImageTiltShiftFilter" -> "GPUImageFilterGroup";
	"BTSLissajousLayer" -> "BTSCoreGraphics";
	"GPUImageOpacityFilter" -> "GPUImageFilter";
	"SideMenuRightVC" -> "SideMenuSecondVC";
	"SideMenuRightVC" -> "VCLabs-Swift";
	"SideMenuRightVC" -> "SideMenuLeftVC";
	"APLGraphViewController" -> "APLGraphView";
	"AboutController" -> "LoginController";
	"QRadioItemElement" -> "QAppearance";
	"QRadioItemElement" -> "QRootElement";
	"QRadioItemElement" -> "QSection";
	"QRadioItemElement" -> "QuickDialogTableView";
	"QRadioItemElement" -> "QLabelElement";
	"QRadioItemElement" -> "QRadioElement";
	"QDateTimeInlineElement" -> "QuickDialogController";
	"QDateTimeInlineElement" -> "QEntryElement";
	"QDateTimeInlineElement" -> "QuickDialogTableView";
	"APLDeviceMotionGraphViewController" -> "APLGraphView";
	"APLDeviceMotionGraphViewController" -> "APLGraphViewController";
	"GPUImageSaturationFilter" -> "GPUImageFilter";
	"QAutoEntryTableViewCell" -> "DOAutocompleteTextField";
	"QAutoEntryTableViewCell" -> "QEntryTableViewCell";
	"GPUImageSaturationBlendFilter" -> "GPUImageTwoInputFilter";
	"QCountdownElement" -> "QDateTimeInlineElement";
	"GPUImageFramebufferCache" -> "GPUImageOutput";
	"GPUImageFramebufferCache" -> "GPUImageFramebuffer";
	"GPUImageGaussianSelectiveBlurFilter" -> "GPUImageGaussianBlurFilter";
	"GPUImageGaussianSelectiveBlurFilter" -> "GPUImageTwoInputFilter";
	"GPUImageGaussianSelectiveBlurFilter" -> "GPUImageFilterGroup";
	"GPUImageColorDodgeBlendFilter" -> "GPUImageTwoInputFilter";
	"SimpleViewPropertyAnimation" -> {};
	"QWebElement" -> "QWebViewController";
	"QWebElement" -> "QuickDialog";
	"APLGravityViewController" -> {};
	"BTSSineWaveLayer" -> "BTSCoreGraphics";
	"GPUImageVignetteFilter" -> "GPUImageFilter";
	"QuickDialogSampleDataBuilder" -> "QMailElement";
	"QuickDialogSampleDataBuilder" -> "PeriodPickerValueParser";
	"QuickDialogSampleDataBuilder" -> "QMapElement";
	"QuickDialogSampleDataBuilder" -> "QDynamicDataSection";
	"QuickDialogSampleDataBuilder" -> "QWebElement";
	"QuickDialogSampleDataBuilder" -> "QuickDialog";
	"QuickDialogSampleDataBuilder" -> "QPickerElement";
	"FilteredImageView" -> {};
	"UnicodeExplorerVC" -> {};
	"QuickDialogWebController" -> "QuickDialogController";
	"QuickDialogWebController" -> "QuickDialog";
	"QWebViewController" -> "QuickDialog";
	"GPUImageHueBlendFilter" -> "GPUImageTwoInputFilter";
	"GPUImageSourceOverBlendFilter" -> "GPUImageTwoInputFilter";
	"GPUImageBuffer" -> "GPUImageFilter";
	"GPUImageDifferenceBlendFilter" -> "GPUImageTwoInputFilter";
	"APLContinuousPushViewController" -> "APLDecorationView";
	"QuartzBlending" -> "QuartzView";
	"GPUImageMaskFilter" -> "GPUImageTwoInputFilter";
	"GestureRecognizer" -> "VictorKit";
	"GPUImageHighlightShadowFilter" -> "GPUImageFilter";
	"QuickDialogTableView" -> "UIKit/UIKit";
	"QuickDialogTableView" -> "QuickDialogDelegate";
	"QuickDialogTableView" -> "QuickDialogDataSource";
	"APLSnapViewController" -> {};
	"GPUImageSwirlFilter" -> "GPUImageFilter";
	"QPickerTabDelimitedStringParser" -> "QPickerValueParser";
	"GPUImageContrastFilter" -> "GPUImageFilter";
	"GPUImageMovieWriter" -> "GPUImageContext";
	"GPUImageMovieWriter" -> "GPUImageFilter";
	"GPUImageMovieWriter" -> "GLProgram";
	"GPUImageWeakPixelInclusionFilter" -> "GPUImage3x3TextureSamplingFilter";
	"FilterDemoVC" -> "FilteredImageView";
	"QClassicAppearance" -> "QAppearance";
	"QClassicAppearance" -> "QRootElement";
	"QClassicAppearance" -> "QSection";
	"QClassicAppearance" -> "QuickDialogTableView";
	"GPUImageHistogramFilter" -> "GPUImageFilter";
	"BTSPulseViewController" -> "BTSAnchorPointLayer";
	"GPUImageMotionBlurFilter" -> "GPUImageFilter";
	"QBindingEvaluator" -> "QuickDialog";
	"GPUImageColorPackingFilter" -> "GPUImageFilter";
	"GPUImageBoxBlurFilter" -> "GPUImageGaussianBlurFilter";
	"ReflectionViewController" -> "VictorKit";
	"GPUImage" -> "GPUImageContext";
	"GPUImage" -> "GPUImageTransformFilter";
	"GPUImage" -> "GPUImageMultiplyBlendFilter";
	"GPUImage" -> "GPUImageRGBOpeningFilter";
	"GPUImage" -> "GPUImagePicture";
	"GPUImage" -> "GPUImageSepiaFilter";
	"GPUImage" -> "GPUImageSoftEleganceFilter";
	"GPUImage" -> "GPUImageSmoothToonFilter";
	"GPUImage" -> "GPUImageGrayscaleFilter";
	"GPUImage" -> "GPUImageNobleCornerDetectionFilter";
	"GPUImage" -> "GPUImageRGBFilter";
	"GPUImage" -> "GPUImageColorBlendFilter";
	"GPUImage" -> "GPUImageChromaKeyBlendFilter";
	"GPUImage" -> "GPUImageErosionFilter";
	"GPUImage" -> "GPUImageThresholdEdgeDetectionFilter";
	"GPUImage" -> "GPUImageStretchDistortionFilter";
	"GPUImage" -> "GPUImageCrosshatchFilter";
	"GPUImage" -> "GPUImageHalftoneFilter";
	"GPUImage" -> "GPUImageLocalBinaryPatternFilter";
	"GPUImage" -> "GPUImageAverageLuminanceThresholdFilter";
	"GPUImage" -> "GPUImageCannyEdgeDetectionFilter";
	"GPUImage" -> "GPUImageHardLightBlendFilter";
	"GPUImage" -> "GPUImageSobelEdgeDetectionFilter";
	"GPUImage" -> "GPUImageLuminosity";
	"GPUImage" -> "GPUImageTextureOutput";
	"GPUImage" -> "GPUImageTextureInput";
	"GPUImage" -> "GPUImageRawDataInput";
	"GPUImage" -> "GPUImageMissEtikateFilter";
	"GPUImage" -> "GPUImageKuwaharaFilter";
	"GPUImage" -> "GPUImageView";
	"GPUImage" -> "GPUImageLuminosityBlendFilter";
	"GPUImage" -> "GPUImageXYDerivativeFilter";
	"GPUImage" -> "GPUImageOutput";
	"GPUImage" -> "GPUImageMedianFilter";
	"GPUImage" -> "GPUImageSolidColorGenerator";
	"GPUImage" -> "GPUImagePoissonBlendFilter";
	"GPUImage" -> "GPUImageSoftLightBlendFilter";
	"GPUImage" -> "GPUImageHistogramGenerator";
	"GPUImage" -> "GPUImageSubtractBlendFilter";
	"GPUImage" -> "GPUImageDilationFilter";
	"GPUImage" -> "GPUImageCrosshairGenerator";
	"GPUImage" -> "GPUImageMotionDetector";
	"GPUImage" -> "GPUImageHistogramEqualizationFilter";
	"GPUImage" -> "GPUImageHarrisCornerDetectionFilter";
	"GPUImage" -> "GPUImageLanczosResamplingFilter";
	"GPUImage" -> "GPUImagePerlinNoiseFilter";
	"GPUImage" -> "GPUImageVoronoiConsumerFilter";
	"GPUImage" -> "GPUImageLuminanceThresholdFilter";
	"GPUImage" -> "GPUImageDifferenceBlendFilter";
	"GPUImage" -> "GPUImageAverageColor";
	"GPUImage" -> "GPUImageMonochromeFilter";
	"GPUImage" -> "GPUImageHazeFilter";
	"GPUImage" -> "GPUImageLinearBurnBlendFilter";
	"GPUImage" -> "GPUImageSketchFilter";
	"GPUImage" -> "GPUImageZoomBlurFilter";
	"GPUImage" -> "GPUImageWhiteBalanceFilter";
	"GPUImage" -> "GPUImageDirectionalSobelEdgeDetectionFilter";
	"GPUImage" -> "GPUImageCGAColorspaceFilter";
	"GPUImage" -> "GPUImageAdaptiveThresholdFilter";
	"GPUImage" -> "GPUImageSingleComponentGaussianBlurFilter";
	"GPUImage" -> "GPUImagePosterizeFilter";
	"GPUImage" -> "GPUImageColourFASTFeatureDetector";
	"GPUImage" -> "GPUImageHSBFilter";
	"GPUImage" -> "GPUImagePinchDistortionFilter";
	"GPUImage" -> "GPUImageFilter";
	"GPUImage" -> "GPUImageExposureFilter";
	"GPUImage" -> "GPUImagePolkaDotFilter";
	"GPUImage" -> "GPUImageLowPassFilter";
	"GPUImage" -> "GPUImageEmbossFilter";
	"GPUImage" -> "GPUImageUnsharpMaskFilter";
	"GPUImage" -> "GPUImageFourInputFilter";
	"GPUImage" -> "GPUImageSphereRefractionFilter";
	"GPUImage" -> "GPUImageLookupFilter";
	"GPUImage" -> "GPUImageAmatorkaFilter";
	"GPUImage" -> "GPUImageBulgeDistortionFilter";
	"GPUImage" -> "GLProgram";
	"GPUImage" -> "GPUImageMosaicFilter";
	"GPUImage" -> "GPUImageFilterGroup";
	"GPUImage" -> "GPUImageLaplacianFilter";
	"GPUImage" -> "GPUImageRGBDilationFilter";
	"GPUImage" -> "GPUImageNonMaximumSuppressionFilter";
	"GPUImage" -> "GPUImagePolarPixellateFilter";
	"GPUImage" -> "GPUImageLightenBlendFilter";
	"GPUImage" -> "GPUImageToonFilter";
	"GPUImage" -> "GPUImageVideoCamera";
	"GPUImage" -> "GPUImageJFAVoronoiFilter";
	"GPUImage" -> "GPUImageMovieWriter";
	"GPUImage" -> "GPUImageRawDataOutput";
	"GPUImage" -> "GPUImageiOSBlurFilter";
	"GPUImage" -> "GPUImageGammaFilter";
	"GPUImage" -> "GPUImageThresholdedNonMaximumSuppressionFilter";
	"GPUImage" -> "GPUImageStillCamera";
	"GPUImage" -> "GPUImagePixellateFilter";
	"GPUImage" -> "GPUImageKuwaharaRadius3Filter";
	"GPUImage" -> "GPUImage3x3ConvolutionFilter";
	"GPUImage" -> "GPUImageColorConversion";
	"GPUImage" -> "GPUImageHighPassFilter";
	"GPUImage" -> "GPUImageGlassSphereFilter";
	"GPUImage" -> "GPUImageAlphaBlendFilter";
	"GPUImage" -> "GPUImageColorLocalBinaryPatternFilter";
	"GPUImage" -> "GPUImageChromaKeyFilter";
	"GPUImage" -> "GPUImageExclusionBlendFilter";
	"GPUImage" -> "GPUImageOverlayBlendFilter";
	"GPUImage" -> "GPUImageDarkenBlendFilter";
	"GPUImage" -> "GPUImagePixellatePositionFilter";
	"GPUImage" -> "GPUImageHoughTransformLineDetector";
	"GPUImage" -> "GPUImageDivideBlendFilter";
	"GPUImage" -> "GPUImageColorPackingFilter";
	"GPUImage" -> "GPUImageToneCurveFilter";
	"GPUImage" -> "GPUImageColorBurnBlendFilter";
	"GPUImage" -> "GPUImageTiltShiftFilter";
	"GPUImage" -> "GPUImageGaussianSelectiveBlurFilter";
	"GPUImage" -> "GPUImageOpeningFilter";
	"GPUImage" -> "GPUImageParallelCoordinateLineTransformFilter";
	"GPUImage" -> "GPUImageDissolveBlendFilter";
	"GPUImage" -> "GPUImageFalseColorFilter";
	"GPUImage" -> "GPUImageGaussianBlurPositionFilter";
	"GPUImage" -> "GPUImageDirectionalNonMaximumSuppressionFilter";
	"GPUImage" -> "GPUImageTwoInputCrossTextureSamplingFilter";
	"GPUImage" -> "GPUImageAddBlendFilter";
	"GPUImage" -> "GPUImageGaussianBlurFilter";
	"GPUImage" -> "GPUImageLevelsFilter";
	"GPUImage" -> "GPUImageColorInvertFilter";
	"GPUImage" -> "GPUImagePrewittEdgeDetectionFilter";
	"GPUImage" -> "GPUImageScreenBlendFilter";
	"GPUImage" -> "GPUImageWeakPixelInclusionFilter";
	"GPUImage" -> "GPUImageLuminanceRangeFilter";
	"GPUImage" -> "GPUImageTwoInputFilter";
	"GPUImage" -> "GPUImageSourceOverBlendFilter";
	"GPUImage" -> "GPUImageFilterPipeline";
	"GPUImage" -> "GPUImageRGBClosingFilter";
	"GPUImage" -> "GPUImageMovie";
	"GPUImage" -> "GPUImageUIElement";
	"GPUImage" -> "GPUImageThresholdSketchFilter";
	"GPUImage" -> "GPUImageOpacityFilter";
	"GPUImage" -> "GPUImageBilateralFilter";
	"GPUImage" -> "GPUImageSaturationFilter";
	"GPUImage" -> "GPUImageSaturationBlendFilter";
	"GPUImage" -> "GPUImageFramebufferCache";
	"GPUImage" -> "GPUImageColorDodgeBlendFilter";
	"GPUImage" -> "GPUImageThreeInputFilter";
	"GPUImage" -> "GPUImageShiTomasiFeatureDetectionFilter";
	"GPUImage" -> "GPUImageCropFilter";
	"GPUImage" -> "GPUImageMaskFilter";
	"GPUImage" -> "GPUImageVignetteFilter";
	"GPUImage" -> "GPUImageSharpenFilter";
	"GPUImage" -> "GPUImageHueBlendFilter";
	"GPUImage" -> "GPUImageBuffer";
	"GPUImage" -> "GPUImageHighlightShadowFilter";
	"GPUImage" -> "GPUImageSwirlFilter";
	"GPUImage" -> "GPUImageContrastFilter";
	"GPUImage" -> "GPUImageHueFilter";
	"GPUImage" -> "GPUImageHistogramFilter";
	"GPUImage" -> "GPUImageMotionBlurFilter";
	"GPUImage" -> "GPUImageLineGenerator";
	"GPUImage" -> "GPUImageBoxBlurFilter";
	"GPUImage" -> "GPUImageRGBErosionFilter";
	"GPUImage" -> "GPUImageFramebuffer";
	"GPUImage" -> "GPUImageBrightnessFilter";
	"GPUImage" -> "GPUImageClosingFilter";
	"GPUImage" -> "GPUImageColourFASTSamplingOperation";
	"GPUImage" -> "GPUImageNormalBlendFilter";
	"GPUImageHighlightShadowTintFilter" -> "GPUImageFilter";
	"GPUImageShiTomasiFeatureDetectionFilter" -> "GPUImageHarrisCornerDetectionFilter";
	"GPUImageThreeInputFilter" -> "GPUImageTwoInputFilter";
	"QEmptyListElement" -> "QAppearance";
	"QEmptyListElement" -> "QLabelElement";
	"QMultilineElement" -> "QEntryElement";
	"QuartzImages" -> "QuartzView";
	"BTSWiggleViewController" -> {};
	"GPUImageFilterPipeline" -> "GPUImageOutput";
	"APLCompositeBehaviorViewController" -> "APLDecorationView";
	"APLCompositeBehaviorViewController" -> "APLPendulumBehavior";
	"GPUImageBrightnessFilter" -> "GPUImageFilter";
	"GPUImageAdaptiveThresholdFilter" -> "GPUImageBoxBlurFilter";
	"GPUImageAdaptiveThresholdFilter" -> "GPUImageFilter";
	"GPUImageAdaptiveThresholdFilter" -> "GPUImageTwoInputFilter";
	"GPUImageAdaptiveThresholdFilter" -> "GPUImageGrayscaleFilter";
	"GPUImageAdaptiveThresholdFilter" -> "GPUImageFilterGroup";
	"GPUImageColourFASTSamplingOperation" -> "GPUImageTwoInputFilter";
	"QuartzBlendingViewController" -> "QuartzBlending";
	"GPUImageNormalBlendFilter" -> "GPUImageTwoInputFilter";
	"QPickerElement" -> "QPickerTabDelimitedStringParser";
	"QPickerElement" -> "QPickerValueParser";
	"QPickerElement" -> "QuickDialog";
	
	"GPUImage-Prefix" [color=red];
	
	edge [color=blue, dir=both];
	"QuickDialog" -> "QRootBuilder";
	"QuickDialog" -> "QMultilineElement";
	"QuickDialog" -> "QAutoEntryTableViewCell";
	"QuickDialog" -> "QAutoEntryElement";
	"QRadioElement" -> "QuickDialog";
	"QuickDialog" -> "QRootElement";
	"QRadioSection" -> "QRadioItemElement";
	"QuickDialog" -> "QElement";
	"QuickDialog" -> "QEntryElement";
	"GPUImageOutput" -> "GPUImageFramebuffer";
	"QDateTimeInlineElement" -> "QDateInlineTableViewCell";
	"GPUImageContext" -> "GPUImageFramebufferCache";
	"QProgressElement" -> "QuickDialog";
	"QDateTimeInlineElement" -> "QDateEntryTableViewCell";
	"QuickDialogTableDelegate" -> "QuickDialogTableView";
	"QuickDialog" -> "QuickDialogTableDelegate";
	"QPickerTableViewCell" -> "QPickerElement";
	"QuickDialog" -> "QuickDialogTableView";
	"QuickDialog" -> "QEntryTableViewCell";
	"QuickDialog" -> "QDateTimeElement";
	"QuickDialog" -> "QBadgeElement";
	"QImageTableViewCell" -> "QImageElement";
	"GPUImageOutput" -> "GPUImagePicture";
	"QMultilineTextViewController" -> "QuickDialog";
	"QuickDialog" -> "QLoadingElement";
	"UIKit/UIKit" [color=gray, style=dashed, fontcolor=gray]
	"VCLabs-Swift" [color=gray, style=dashed, fontcolor=gray]
	
	edge [color=black];
	node [shape=plaintext];
	"Categories" [label="GPUImagePicture+TextureSubimage\nNSMutableArray+MoveObject\nQRootElement+JsonBuilder\nUIColor+Pantone\nQuickDialogController+Helpers\nQuickDialogController+Loading\nNSMutableArray+IMSExtensions\nQElement+Appearance\nUIColor+CSSColors\nCALayer+Additions\nUIColor+ColorUtilities\nCMMotionManager+VictorKit\nQuickDialogController+Animations\nQuickDialogController+Navigation\nCALayer+WiggleAnimationAdditions"];
}

